Chapter 3 Data transformation | CO2 Emission Data Analysis
…
##       Yr Mn    alt    mlo    kum    chr    sam    ker    nzd
## 625 2012  1 399.10 393.19 393.72    NaN 391.60    NaN 388.43
## 626 2012  2 398.83 393.47 395.39 393.53 392.08    NaN 388.10
## 627 2012  3 399.40 394.42 397.81 394.19 391.98 390.66 388.50
## 628 2012  4 400.07 396.48 397.72 393.61 391.66    NaN 388.50
## 629 2012  5 400.42 397.17 398.15 393.20 391.51    NaN 389.30
## 630 2012  6 397.28 396.11 396.28 393.73 391.66    NaN 390.57
## 631 2012  7 389.59 394.38 392.81    NaN 390.74 390.36    NaN
## 632 2012  8 382.70 392.02 392.54 392.78 392.07    NaN 390.81
## 633 2012  9 386.00 391.16 390.40    NaN 391.83 390.93 391.55
## 634 2012 10 390.42 391.08 391.67 394.65 392.17 391.69    NaN

Since we don’t have categorical variables in our data, we want to add two categorical variables. Firstly, we change the numerical value of months to categories, such as January and February. Secondly, we separate our stations into two categories, in the northern hemisphere and in the southern hemisphere. Here is our data “monthly_co2_c”.

## # A tibble: 110 × 5
##       Yr Mn    station CO2_concentration hemisphere
##    <int> <chr> <chr>               <dbl> <chr>     
##  1  2012 Jan   alt                  399. southern  
##  2  2012 Jan   mlo                  393. southern  
##  3  2012 Jan   kum                  394. southern  
##  4  2012 Jan   chr                  NaN  southern  
##  5  2012 Jan   sam                  392. southern  
##  6  2012 Jan   ker                  NaN  southern  
##  7  2012 Jan   nzd                  388. southern  
##  8  2012 Feb   alt                  399. southern  
##  9  2012 Feb   mlo                  393. southern  
## 10  2012 Feb   kum                  395. southern  
## # … with 100 more rows
…
